<?xml version="1.0" encoding="utf-8"?>
<!-- Generator: Adobe Illustrator 19.0.1, SVG Export Plug-In . SVG Version: 6.00 Build 0)  -->
<svg version="1.2" baseProfile="tiny" id="Layer_1" xmlns="http://www.w3.org/2000/svg" xmlns:xlink="http://www.w3.org/1999/xlink"
	 x="0px" y="0px" viewBox="0 0 250 250" xml:space="preserve">
<g>
	<path fill="#D8D9D8" d="M182.3,117.4v43.5c0,0-21.9,13.4-56.8,13.4s-56.8-13.4-56.8-13.4v-43.5"/>
	<path fill="#010101" d="M125.5,177.6c-35.4,0-57.7-13.3-58.6-13.9c-1-0.6-1.6-1.7-1.6-2.9v-43.5c0-1.8,1.5-3.3,3.3-3.3
		s3.3,1.5,3.3,3.3v41.5c2.3,1.2,6.8,3.4,13.3,5.6c8.7,2.9,22.7,6.4,40.2,6.4c17.5,0,31.5-3.5,40.2-6.4c6.5-2.2,11-4.4,13.3-5.6
		v-41.5c0-1.8,1.5-3.3,3.3-3.3s3.3,1.5,3.3,3.3v43.5c0,1.2-0.6,2.2-1.6,2.9C183.1,164.3,161,177.6,125.5,177.6z"/>
	<path fill="#D8D9D8" d="M44.6,102.9c-3.3-1.7-3.3-4.4,0-6.1l74.2-38c3.3-1.7,8.6-1.7,11.9,0l74.2,38c3.3,1.7,3.3,4.4,0,6.1
		l-74.2,38c-3.3,1.7-8.6,1.7-11.9,0L44.6,102.9z"/>
	<path fill="#010101" d="M124.7,145.5c-2.7,0-5.3-0.5-7.5-1.6l-74.2-38c-2.7-1.4-4.3-3.6-4.3-6c0-2.4,1.6-4.6,4.3-6l74.2-38
		c4.3-2.2,10.7-2.2,15,0l74.2,38c2.7,1.4,4.3,3.6,4.3,6c0,2.4-1.6,4.6-4.3,6l-74.2,38C130,145,127.4,145.5,124.7,145.5z M45.9,99.8
		l0.1,0.1l0,0l74.2,38c2.3,1.2,6.5,1.2,8.9,0l74.2-38l0.1-0.1l-0.1-0.1l-74.2-38c-2.3-1.2-6.5-1.2-8.9,0l-74.2,38L45.9,99.8z"/>
	<path fill="#010101" d="M169,187.7c-1.8,0-3.3-1.5-3.3-3.3v-60.2c0-1.8,1.5-3.3,3.3-3.3s3.3,1.5,3.3,3.3v60.2
		C172.3,186.2,170.8,187.7,169,187.7z"/>
	<circle fill="#CB6FAC" cx="169" cy="194.3" r="10"/>
	<path fill="#010101" d="M169,207.7c-7.4,0-13.4-6-13.4-13.4s6-13.4,13.4-13.4c7.4,0,13.4,6,13.4,13.4S176.3,207.7,169,207.7z
		 M169,187.7c-3.7,0-6.7,3-6.7,6.7s3,6.7,6.7,6.7s6.7-3,6.7-6.7S172.7,187.7,169,187.7z"/>
	<path fill="#010101" d="M72.1,104.1c-1.2,0-2.4-0.7-3-1.8c-0.8-1.7-0.2-3.7,1.5-4.5L83.9,91c1.7-0.8,3.7-0.2,4.5,1.5
		c0.8,1.7,0.2,3.7-1.5,4.5l-13.3,6.7C73.1,103.9,72.6,104.1,72.1,104.1z"/>
	<path fill="#010101" d="M85.4,110.7c-1.2,0-2.4-0.7-3-1.8c-0.8-1.7-0.2-3.7,1.5-4.5l13.3-6.7c1.7-0.8,3.7-0.2,4.5,1.5
		s0.2,3.7-1.5,4.5l-13.3,6.7C86.4,110.6,85.9,110.7,85.4,110.7z"/>
</g>
</svg>
