<?xml version="1.0" encoding="utf-8"?>
<!-- Generator: Adobe Illustrator 19.0.1, SVG Export Plug-In . SVG Version: 6.00 Build 0)  -->
<!DOCTYPE svg PUBLIC "-//W3C//DTD SVG 1.1//EN" "http://www.w3.org/Graphics/SVG/1.1/DTD/svg11.dtd">
<svg version="1.1" id="Layer_1" xmlns="http://www.w3.org/2000/svg" xmlns:xlink="http://www.w3.org/1999/xlink" x="0px" y="0px"
	 viewBox="1229.3 -1 880.9 469.6" style="enable-background:new 1229.3 -1 880.9 469.6;" xml:space="preserve">
<style type="text/css">
	.st0{fill:#427CB2;}
	.st1{fill:none;stroke:#427CB2;stroke-width:15;stroke-miterlimit:10;}
</style>
<path id="TY1ZQa_1_" class="st0" d="M1549.6,177.4v-18.2c0.3-1,0.9-1.9,1-2.9c5.5-52.4,42.7-94.1,94.2-105.4c5.3-1.2,10.7-2,16.1-3
	h18.2c1,0.3,1.9,0.9,2.9,1c52.4,5.5,94.1,42.7,105.4,94.2c1.2,5.3,2,10.7,3,16.1v18.2c-0.3,1-0.9,1.9-1,2.9
	c-5.5,52.4-42.7,94-94.3,105.4c-5.3,1.2-10.7,2-16.1,3h-18.2c-1-0.3-1.9-0.9-2.9-1c-52.5-5.5-94-42.7-105.4-94.3
	C1551.4,188.1,1550.6,182.7,1549.6,177.4L1549.6,177.4z M1642.7,234.5c0.8-1.1,1.1-1.3,1.2-1.6c7.5-22.3,15-44.5,22.3-66.8
	c0.5-1.7,0.2-3.9-0.4-5.6c-3.8-10.9-8.3-21.6-11.6-32.7c-2.3-7.7-5.8-12.5-14.5-11.6c-3,0.3-5.3-1.5-4.4-4.4
	c0.5-1.7,3.3-3.7,5.1-3.7c6-0.1,12.1,0.9,18.1,0.8c12.5-0.1,24.9-0.8,37.4-0.8c1.7,0,3.4,2.5,5.1,3.9c-1.5,1.4-2.8,3.6-4.6,4.1
	c-3.5,0.9-7.3,0.9-11.8,1.4c13,38.7,25.9,76.9,39.2,116.7c0.9-2.4,1.2-3.1,1.5-3.9c5-16.3,9.7-32.7,14.9-49
	c5.7-18.1,3-34.7-7.1-50.5c-3.3-5.2-6.3-10.8-8.2-16.7c-4.1-12.6,3-23.3,16-25.5c0.4-0.1,0.8-0.4,1.9-1
	c-29.2-24.4-61.8-33.4-98.5-24.7c-27.4,6.5-48.7,22-65.3,46.2c3.4,0,5.4,0.1,7.3,0c9.4-0.4,18.9-1,28.3-1c1.7,0,3.4,2.5,5.1,3.9
	c-1.5,1.4-2.8,3.6-4.6,4.1c-3.5,1-7.3,1-11.8,1.4C1616.6,156.7,1629.6,195.3,1642.7,234.5z M1639.1,272.2
	c22.8,6.7,44.8,6.2,66.9-1.7c-11.3-31-22.4-61.4-33.5-91.8c-0.4,0-0.8,0.1-1.2,0.1C1660.6,209.8,1649.9,240.8,1639.1,272.2z
	 M1571.5,124.6c-11.5,20.7-14.3,55.4-1.9,85c10.2,24.3,36,51.7,53.1,55.2C1605.7,218.1,1588.7,171.7,1571.5,124.6L1571.5,124.6z
	 M1764.9,117.3c1.8,16.2-1.1,30.5-6,44.6c-11.1,31.7-22.1,63.4-33.1,95.2c-0.4,1.2-0.5,2.4-0.9,4.2
	C1778.3,231.1,1791.9,161.5,1764.9,117.3L1764.9,117.3z"/>
<path class="st0" d="M1254.3,386.7h6.4l13.1,45.8l13-46h5.1l13,46l13.1-45.8h6.1l-16.6,56h-5.2l-13-44.9l-13,44.9h-5.2L1254.3,386.7
	L1254.3,386.7z M1353.5,443.3c-3.6,0-6.8-0.7-9.7-2.1c-2.9-1.4-5.5-3.4-7.6-5.9s-3.7-5.5-4.9-8.9c-1.2-3.4-1.7-7.2-1.7-11.3v-0.6
	c0-4.1,0.6-7.9,1.7-11.3c1.2-3.5,2.8-6.5,4.9-9c2.1-2.5,4.7-4.5,7.6-6c2.9-1.4,6.2-2.1,9.7-2.1s6.8,0.7,9.7,2.1
	c2.9,1.4,5.4,3.4,7.5,5.9s3.7,5.5,4.9,8.9c1.2,3.4,1.7,7.2,1.7,11.3v0.6c0,4.1-0.6,7.9-1.7,11.3c-1.2,3.5-2.8,6.5-4.9,9
	s-4.6,4.5-7.6,6C1360.3,442.5,1357,443.3,1353.5,443.3L1353.5,443.3z M1353.5,437.8c2.5,0,4.9-0.6,7.1-1.7c2.2-1.1,4.1-2.7,5.6-4.7
	c1.6-2,2.8-4.5,3.7-7.3s1.3-5.9,1.3-9.2v-0.6c0-3.3-0.5-6.4-1.4-9.3c-0.9-2.8-2.1-5.3-3.7-7.3c-1.6-2-3.5-3.6-5.6-4.7
	c-2.2-1.1-4.5-1.7-7.1-1.7s-4.9,0.6-7.1,1.7c-2.2,1.1-4.1,2.7-5.6,4.7c-1.6,2-2.8,4.5-3.7,7.3s-1.3,5.9-1.3,9.2v0.6
	c0,3.3,0.4,6.4,1.4,9.3c0.9,2.8,2.1,5.3,3.7,7.3c1.6,2,3.5,3.6,5.6,4.7C1348.6,437.2,1351,437.8,1353.5,437.8z M1388.6,386.7h19
	c3.2,0,6,0.5,8.5,1.4s4.5,2.2,6.1,3.8c1.4,1.4,2.5,3,3.2,5c0.8,1.9,1.2,4.1,1.2,6.5v0.2c0,4.4-1.2,7.9-3.7,10.6
	c-2.5,2.7-5.6,4.5-9.5,5.4l14.9,22.8h-7.2l-14-21.6h-12.6v21.6h-6L1388.6,386.7L1388.6,386.7z M1406.6,415.4c4.6,0,8-1,10.5-3.1
	c2.4-2.1,3.6-4.9,3.6-8.5v-0.2c0-3.7-1.2-6.5-3.6-8.4c-2.4-2-5.7-2.9-9.9-2.9h-12.6v23.1L1406.6,415.4L1406.6,415.4z M1438,386.7
	h15.7c3.9,0,7.4,0.7,10.6,2s6,3.2,8.3,5.6c2.3,2.4,4.1,5.3,5.4,8.7s1.9,7.1,1.9,11.2v0.6c0,4.1-0.6,7.8-1.9,11.2
	c-1.3,3.4-3.1,6.3-5.4,8.7c-2.3,2.4-5.1,4.3-8.3,5.6c-3.2,1.4-6.7,2-10.6,2H1438V386.7z M1443.9,392.2v44.7h9.6c3,0,5.8-0.5,8.3-1.6
	s4.6-2.6,6.4-4.5c1.7-1.9,3.1-4.3,4.1-7s1.4-5.7,1.4-9v-0.6c0-3.3-0.5-6.3-1.4-9c-1-2.7-2.3-5.1-4.1-7c-1.7-1.9-3.9-3.4-6.4-4.5
	s-5.2-1.6-8.3-1.6L1443.9,392.2L1443.9,392.2z M1491.1,386.7h16.8c3,0,5.7,0.4,8.1,1.2s4.5,2,6.2,3.5c1.7,1.5,3,3.4,3.9,5.5
	c0.9,2.2,1.4,4.6,1.4,7.4v0.2c0,3-0.5,5.6-1.6,7.8c-1,2.3-2.5,4.1-4.3,5.7c-1.8,1.5-4,2.7-6.4,3.5s-5.1,1.2-8,1.2H1497v19.6h-6
	L1491.1,386.7L1491.1,386.7z M1507.3,417.3c4.3,0,7.8-1.2,10.3-3.5s3.8-5.4,3.8-9.2v-0.1c0-4.1-1.2-7.2-3.7-9.3s-5.9-3.1-10.1-3.1
	H1497v25.1L1507.3,417.3L1507.3,417.3z M1537,386.7h19c3.2,0,6,0.5,8.5,1.4s4.5,2.2,6.1,3.8c1.4,1.4,2.5,3,3.2,5
	c0.8,1.9,1.2,4.1,1.2,6.5v0.2c0,4.4-1.2,7.9-3.7,10.6c-2.5,2.7-5.6,4.5-9.5,5.4l14.9,22.8h-7.2l-14-21.6h-12.6v21.6h-6L1537,386.7
	L1537,386.7z M1554.9,415.4c4.6,0,8-1,10.5-3.1c2.4-2.1,3.6-4.9,3.6-8.5v-0.2c0-3.7-1.2-6.5-3.6-8.4c-2.4-2-5.7-2.9-9.9-2.9h-12.6
	v23.1L1554.9,415.4L1554.9,415.4z M1586.3,386.7h33.9v5.5h-28v19.4h25.1v5.4h-25.1v19.9h28.4v5.5h-34.3V386.7L1586.3,386.7z
	 M1646.9,443.2c-3.6,0-7-0.6-10.2-1.9c-3.2-1.3-6.2-3.3-9.1-6l3.7-4.5c2.3,2.2,4.7,3.9,7.2,5.1c2.5,1.2,5.3,1.8,8.5,1.8
	c1.6,0,3.2-0.2,4.5-0.7c1.4-0.5,2.6-1.1,3.5-2c1-0.8,1.7-1.8,2.3-3c0.5-1.1,0.8-2.4,0.8-3.7v-0.1c0-1.2-0.2-2.2-0.5-3.2
	c-0.3-1-1-1.9-1.9-2.7c-0.9-0.9-2.1-1.7-3.7-2.6c-1.6-0.8-3.7-1.7-6.2-2.6c-2.9-1.1-5.3-2.1-7.4-3.3c-2-1.1-3.7-2.3-5-3.6
	c-1.3-1.3-2.2-2.7-2.8-4.2s-0.9-3.3-0.9-5.2v-0.2c0-2.1,0.4-4,1.2-5.8c0.8-1.8,2-3.4,3.5-4.7s3.3-2.4,5.3-3.1
	c2.1-0.7,4.3-1.1,6.8-1.1c3.2,0,6.2,0.5,8.9,1.5c2.7,1,5.3,2.6,7.8,4.8l-3.6,4.6c-4.2-3.6-8.6-5.4-13.4-5.4c-3.2,0-5.7,0.8-7.6,2.5
	s-2.9,3.7-2.9,6.1v0.2c0,1.2,0.2,2.3,0.6,3.3c0.4,1,1,1.9,2,2.8c1,0.9,2.3,1.8,3.9,2.6c1.7,0.8,3.8,1.7,6.5,2.7
	c2.8,1.1,5.2,2.1,7.2,3.3c2,1.1,3.6,2.3,4.8,3.6c1.2,1.3,2.1,2.7,2.7,4.2c0.6,1.5,0.8,3.2,0.8,5v0.2c0,2.2-0.4,4.3-1.3,6.1
	c-0.9,1.9-2.1,3.5-3.6,4.8c-1.5,1.4-3.4,2.4-5.4,3.1C1651.7,442.8,1649.4,443.2,1646.9,443.2L1646.9,443.2z M1689.6,443.2
	c-3.6,0-7-0.6-10.2-1.9c-3.2-1.3-6.2-3.3-9.1-6l3.7-4.5c2.3,2.2,4.7,3.9,7.2,5.1c2.5,1.2,5.3,1.8,8.5,1.8c1.6,0,3.2-0.2,4.5-0.7
	c1.4-0.5,2.6-1.1,3.5-2c1-0.8,1.7-1.8,2.3-3c0.5-1.1,0.8-2.4,0.8-3.7v-0.1c0-1.2-0.2-2.2-0.5-3.2c-0.3-1-1-1.9-1.9-2.7
	c-0.9-0.9-2.1-1.7-3.7-2.6c-1.6-0.8-3.7-1.7-6.2-2.6c-2.9-1.1-5.3-2.1-7.4-3.3c-2.1-1.2-3.7-2.3-5-3.6c-1.3-1.3-2.2-2.7-2.8-4.2
	s-0.9-3.3-0.9-5.2v-0.2c0-2.1,0.4-4,1.2-5.8c0.8-1.8,2-3.4,3.5-4.7s3.3-2.4,5.3-3.1c2.1-0.7,4.3-1.1,6.8-1.1c3.2,0,6.2,0.5,8.9,1.5
	c2.7,1,5.3,2.6,7.8,4.8l-3.6,4.6c-4.2-3.6-8.6-5.4-13.4-5.4c-3.2,0-5.7,0.8-7.6,2.5s-2.9,3.7-2.9,6.1v0.2c0,1.2,0.2,2.3,0.6,3.3
	c0.4,1,1,1.9,2,2.8c1,0.9,2.3,1.8,3.9,2.6c1.7,0.8,3.8,1.7,6.5,2.7c2.8,1.1,5.2,2.1,7.2,3.3c2,1.1,3.5,2.3,4.8,3.6
	c1.2,1.3,2.1,2.7,2.7,4.2c0.6,1.5,0.8,3.2,0.8,5v0.2c0,2.2-0.4,4.3-1.3,6.1c-0.9,1.9-2.1,3.5-3.6,4.8c-1.5,1.4-3.4,2.4-5.4,3.1
	C1694.4,442.8,1692.1,443.2,1689.6,443.2L1689.6,443.2z M1747.5,397.4h-14v-10.7h39.4v10.7h-14v45h-11.4V397.4z M1780.8,386.7h20.9
	c6.5,0,11.6,1.8,15.1,5.3c3.1,3.1,4.7,7.4,4.7,12.9v0.3c0,4.2-1,7.7-2.9,10.4s-4.4,4.7-7.5,6.1l11.8,20.7h-13.2l-10.3-18.3h-7.2
	v18.3h-11.5L1780.8,386.7L1780.8,386.7z M1800.8,413.9c3,0,5.2-0.8,6.8-2.3c1.5-1.5,2.3-3.5,2.3-6.1v-0.1c0-2.8-0.8-4.9-2.4-6.3
	c-1.6-1.4-3.9-2.1-6.9-2.1h-8.3v16.8L1800.8,413.9L1800.8,413.9z M1846.4,386.4h11l20,56h-11.9l-4.1-12.1h-19.2l-4.1,12.1h-11.6
	L1846.4,386.4L1846.4,386.4z M1857.7,420.1l-6-18.1l-6.1,18.1H1857.7z M1884.6,386.7h11.5v55.7h-11.5V386.7z M1907.7,386.7h10.6
	l21.3,32.4v-32.4h11.3v55.7h-9.9l-22-33.6v33.6h-11.3V386.7z M1962.4,386.7h11.5v55.7h-11.5V386.7z M1985.4,386.7h10.6l21.3,32.4
	v-32.4h11.3v55.7h-9.9l-22-33.6v33.6h-11.3V386.7z M2063.5,443.2c-3.8,0-7.2-0.6-10.3-1.9c-3.1-1.3-5.8-3.2-8.1-5.6
	c-2.3-2.4-4.1-5.4-5.4-8.9s-1.9-7.4-1.9-11.8v-0.7c0-4.1,0.6-7.9,1.9-11.4c1.3-3.4,3.1-6.4,5.4-8.9s5-4.5,8.2-5.9s6.7-2.1,10.4-2.1
	c3.9,0,7.3,0.5,10.1,1.6c2.8,1.1,5.5,2.7,8.1,4.9l-6.8,9c-1.5-1.4-3.1-2.5-4.8-3.4c-1.7-0.9-4-1.4-6.7-1.4c-2,0-3.9,0.4-5.6,1.3
	c-1.7,0.8-3.2,2.1-4.4,3.6c-1.2,1.6-2.2,3.4-2.9,5.6c-0.7,2.2-1.1,4.5-1.1,7.1v0.6c0,2.9,0.4,5.4,1.1,7.6c0.7,2.2,1.8,4.1,3.1,5.6
	c1.3,1.5,2.8,2.7,4.6,3.5c1.8,0.8,3.7,1.2,5.7,1.2c3.4,0,6.1-0.8,8.3-2.3v-9.9h-10.1v-10h21.1v25.8c-2.5,1.9-5.4,3.5-8.7,4.9
	C2071.3,442.5,2067.6,443.2,2063.5,443.2L2063.5,443.2z"/>
<circle class="st1" cx="1670.6" cy="167.9" r="140"/>
</svg>
